<?xml version="1.0" encoding="UTF-8" standalone="no"?>
<!-- Created with Inkscape (http://www.inkscape.org/) -->

<svg
   xmlns:dc="http://purl.org/dc/elements/1.1/"
   xmlns:cc="http://creativecommons.org/ns#"
   xmlns:rdf="http://www.w3.org/1999/02/22-rdf-syntax-ns#"
   xmlns:svg="http://www.w3.org/2000/svg"
   xmlns="http://www.w3.org/2000/svg"
   xmlns:sodipodi="http://sodipodi.sourceforge.net/DTD/sodipodi-0.dtd"
   xmlns:inkscape="http://www.inkscape.org/namespaces/inkscape"
   width="210mm"
   height="297mm"
   viewBox="0 0 210 297"
   version="1.1"
   id="svg8"
   inkscape:version="0.92.1 r15371"
   sodipodi:docname="desenhando.svg">
  <defs
     id="defs2" />
  <sodipodi:namedview
     id="base"
     pagecolor="#ffffff"
     bordercolor="#666666"
     borderopacity="1.0"
     inkscape:pageopacity="0.0"
     inkscape:pageshadow="2"
     inkscape:zoom="0.37097269"
     inkscape:cx="-1067.0192"
     inkscape:cy="535.39288"
     inkscape:document-units="mm"
     inkscape:current-layer="layer1"
     showgrid="false"
     inkscape:window-width="1366"
     inkscape:window-height="705"
     inkscape:window-x="-4"
     inkscape:window-y="-4"
     inkscape:window-maximized="1" />
  <metadata
     id="metadata5">
    <rdf:RDF>
      <cc:Work
         rdf:about="">
        <dc:format>image/svg+xml</dc:format>
        <dc:type
           rdf:resource="http://purl.org/dc/dcmitype/StillImage" />
        <dc:title />
      </cc:Work>
    </rdf:RDF>
  </metadata>
  <g
     inkscape:label="Camada 1"
     inkscape:groupmode="layer"
     id="layer1">
    <rect
       style="fill:#e3e3e3;fill-opacity:1;stroke-width:0.31541473"
       id="rect4485"
       width="173.42177"
       height="308.30536"
       x="-528.29413"
       y="-16.502657"
       inkscape:export-xdpi="65.908676"
       inkscape:export-ydpi="65.908676" />
    <rect
       y="-16.502657"
       x="-528.29413"
       height="10.631219"
       width="173.42177"
       id="rect4487"
       style="fill:#094d87;fill-opacity:1;stroke-width:0.05857104"
       inkscape:export-xdpi="65.908676"
       inkscape:export-ydpi="65.908676" />
    <rect
       style="fill:#337ab7;fill-opacity:1;stroke-width:0.08242137"
       id="rect4489"
       width="173.42177"
       height="21.05217"
       x="-528.29413"
       y="-5.871439"
       inkscape:export-xdpi="65.908676"
       inkscape:export-ydpi="65.908676" />
    <text
       xml:space="preserve"
       style="font-style:normal;font-weight:normal;font-size:7.73938799px;line-height:1.25;font-family:sans-serif;letter-spacing:0px;word-spacing:0px;fill:#f2f2f2;fill-opacity:1;stroke:none;stroke-width:0.19348471"
       x="-521.90027"
       y="6.7954483"
       id="text4493"
       inkscape:export-xdpi="65.908676"
       inkscape:export-ydpi="65.908676"><tspan
         sodipodi:role="line"
         id="tspan4491"
         x="-521.90027"
         y="6.7954483"
         style="fill:#f2f2f2;fill-opacity:1;stroke-width:0.19348471">Shopping Oi</tspan></text>
    <rect
       ry="1.0429872"
       y="153.0843"
       x="-515.62939"
       height="88.269653"
       width="148.09239"
       id="rect4500"
       style="fill:#ffffff;fill-opacity:1;stroke:#a8a8a8;stroke-width:0.61455852;stroke-miterlimit:4;stroke-dasharray:none;stroke-opacity:1"
       inkscape:export-xdpi="65.908676"
       inkscape:export-ydpi="65.908676" />
    <rect
       style="fill:#337ab7;fill-opacity:1;stroke:none;stroke-width:0.6069144;stroke-miterlimit:4;stroke-dasharray:none;stroke-opacity:1"
       id="rect4502"
       width="166.50101"
       height="22.213804"
       x="-524.83374"
       y="265.88477"
       rx="0"
       ry="2.1693904"
       inkscape:export-xdpi="65.908676"
       inkscape:export-ydpi="65.908676" />
    <text
       xml:space="preserve"
       style="font-style:normal;font-weight:normal;font-size:8.02246666px;line-height:1.25;font-family:sans-serif;letter-spacing:0px;word-spacing:0px;fill:#f2f2f2;fill-opacity:1;stroke:none;stroke-width:0.20056166"
       x="-463.53531"
       y="279.13635"
       id="text4506"
       inkscape:export-xdpi="65.908676"
       inkscape:export-ydpi="65.908676"><tspan
         sodipodi:role="line"
         id="tspan4504"
         x="-463.53531"
         y="279.13635"
         style="font-style:normal;font-variant:normal;font-weight:bold;font-stretch:normal;font-family:sans-serif;-inkscape-font-specification:'sans-serif Bold';fill:#f2f2f2;fill-opacity:1;stroke-width:0.20056166">AVANÇAR</tspan></text>
    <text
       xml:space="preserve"
       style="font-style:normal;font-weight:normal;font-size:7.77962446px;line-height:1.25;font-family:sans-serif;letter-spacing:0px;word-spacing:0px;fill:#000000;fill-opacity:1;stroke:none;stroke-width:0.19449061"
       x="-518.3161"
       y="31.648336"
       id="text4510"
       inkscape:export-xdpi="65.908676"
       inkscape:export-ydpi="65.908676"><tspan
         sodipodi:role="line"
         id="tspan4508"
         x="-518.3161"
         y="31.648336"
         style="stroke-width:0.19449061">Selecione o seu perfil:</tspan></text>
    <g
       transform="matrix(0.1816465,0,0,0.1816465,-511.98097,155.76466)"
       id="Layer_1"
       inkscape:export-xdpi="65.908676"
       inkscape:export-ydpi="65.908676">
      <g
         id="g4523">
        <path
           style="fill:none;stroke:#231f20;stroke-width:5;stroke-linecap:round;stroke-linejoin:round;stroke-miterlimit:10"
           inkscape:connector-curvature="0"
           d="m 64.238,51.851 c 0.834,1.895 5.287,5.466 9.678,5.466 5.048,0 9.066,-3.367 10.597,-5.361 1.421,2.142 5.71,5.265 11.005,5.265 5.294,0 10.65,-3.334 10.65,-7.958 0,-1.15 -0.237,-1.994 -0.658,-3.121 L 101.367,33.609 H 66.468"
           stroke-miterlimit="10"
           id="path4513" />
        <path
           style="fill:none;stroke:#231f20;stroke-width:5;stroke-linecap:round;stroke-linejoin:round;stroke-miterlimit:10"
           inkscape:connector-curvature="0"
           d="M 66.468,33.607 H 63.772 26.617 l -4.135,12.537 c -0.42,1.127 -0.65,1.905 -0.65,3.056 0,4.624 5.372,8.002 10.666,8.002 5.295,0 9.614,-3.088 11.035,-5.229 1.531,1.994 5.61,5.405 10.659,5.405 4.39,0 9.214,-3.637 10.046,-5.532"
           stroke-miterlimit="10"
           id="path4515" />
        <path
           style="fill:none;stroke:#231f20;stroke-width:5;stroke-linecap:round;stroke-linejoin:round;stroke-miterlimit:10"
           inkscape:connector-curvature="0"
           d="m 100.839,57.837 v 36.345 c 0,3.112 -2.897,5.916 -6.01,5.916 H 33.786 c -3.112,0 -6.198,-2.804 -6.198,-5.916 V 56.71"
           stroke-miterlimit="10"
           id="path4517" />
        <path
           style="fill:none;stroke:#231f20;stroke-width:5;stroke-linecap:round;stroke-linejoin:round;stroke-miterlimit:10"
           inkscape:connector-curvature="0"
           d="M 74.92,97.28 V 74.664 c 0,-2.724 2.343,-4.994 5.066,-4.994 h 5.777 c 2.726,0 4.934,2.271 4.934,4.994 V 97.28"
           stroke-miterlimit="10"
           id="path4519" />
        <path
           style="fill:none;stroke:#231f20;stroke-width:5;stroke-linecap:round;stroke-linejoin:round;stroke-miterlimit:10"
           inkscape:connector-curvature="0"
           d="m 62.523,87.701 c 0,1.244 -1.01,2.254 -2.254,2.254 H 39.984 c -1.245,0 -2.254,-1.01 -2.254,-2.254 V 71.924 c 0,-1.245 1.009,-2.254 2.254,-2.254 H 60.27 c 1.244,0 2.254,1.009 2.254,2.254 v 15.777 z"
           stroke-miterlimit="10"
           id="path4521" />
      </g>
    </g>
    <text
       xml:space="preserve"
       style="font-style:normal;font-weight:normal;font-size:6.80788755px;line-height:1.25;font-family:sans-serif;letter-spacing:0px;word-spacing:0px;fill:#000000;fill-opacity:1;stroke:none;stroke-width:0.17019719"
       x="-486.29025"
       y="169.79123"
       id="text5112"
       inkscape:export-xdpi="65.908676"
       inkscape:export-ydpi="65.908676"><tspan
         sodipodi:role="line"
         x="-486.29025"
         y="169.79123"
         style="stroke-width:0.17019719"
         id="tspan5114">Tenho uma loja no Shopping Oi</tspan></text>
    <path
       style="fill:none;stroke:#a8a8a8;stroke-width:0.26458332px;stroke-linecap:butt;stroke-linejoin:miter;stroke-opacity:1"
       d="m -509.87272,181.2884 h 133.16096"
       id="path5118"
       inkscape:connector-curvature="0"
       inkscape:export-xdpi="65.908676"
       inkscape:export-ydpi="65.908676" />
    <flowRoot
       xml:space="preserve"
       id="flowRoot5124"
       style="font-style:normal;font-weight:normal;font-size:40px;line-height:0.69999999;font-family:sans-serif;letter-spacing:0px;word-spacing:0px;fill:#000000;fill-opacity:1;stroke:none"
       transform="matrix(0.26458333,0,0,0.26458333,-253.12745,-10.183572)"
       inkscape:export-xdpi="65.908676"
       inkscape:export-ydpi="65.908676"><flowRegion
         id="flowRegion5126"
         style="line-height:0.69999999"><rect
           id="rect5128"
           width="517.07416"
           height="205.10608"
           x="-967.79047"
           y="779.52716"
           style="line-height:0.69999999" /></flowRegion><flowPara
         id="flowPara5130"
         style="font-size:18.66666603px;line-height:0.69999999">Cadastre sua loja, responda pedidos dos clientes, bata papo com eles e tire suas dúvidas para aumentar suas vendas.</flowPara></flowRoot>    <path
       inkscape:connector-curvature="0"
       class="cls-1"
       d="m -384.10584,233.51886 5e-5,7e-5 1.10067,1.10068 a 0.63418889,0.63418889 0 0 0 0.89688,0 l 6.91308,-6.91307 a 0.63420626,0.63420626 0 0 0 0,-0.89689 l -1.10068,-1.10067 a 0.63416498,0.63416498 0 0 0 -0.89688,0 l -5.36396,5.36394 -2.68919,-2.68919 a 0.63418889,0.63418889 0 0 0 -0.89688,0 l -1.10068,1.10068 a 0.63418889,0.63418889 0 0 0 0,0.89688 z"
       id="path5138"
       style="fill:#006108;fill-opacity:1;stroke-width:0.21730629"
       inkscape:export-xdpi="65.908676"
       inkscape:export-ydpi="65.908676" />
    <rect
       ry="1.0429872"
       y="48.641762"
       x="-515.62946"
       height="88.269653"
       width="148.09239"
       id="rect4500-1"
       style="fill:#ffffff;fill-opacity:1;stroke:#a8a8a8;stroke-width:0.61455852;stroke-miterlimit:4;stroke-dasharray:none;stroke-opacity:1"
       inkscape:export-xdpi="65.908676"
       inkscape:export-ydpi="65.908676" />
    <text
       xml:space="preserve"
       style="font-style:normal;font-weight:normal;font-size:6.80788755px;line-height:1.25;font-family:sans-serif;letter-spacing:0px;word-spacing:0px;fill:#000000;fill-opacity:1;stroke:none;stroke-width:0.17019719"
       x="-486.29025"
       y="65.348686"
       id="text5112-7"
       inkscape:export-xdpi="65.908676"
       inkscape:export-ydpi="65.908676"><tspan
         sodipodi:role="line"
         x="-486.29025"
         y="65.348686"
         style="stroke-width:0.17019719"
         id="tspan5114-8">Sou cliente do Shopping Oi</tspan></text>
    <path
       style="fill:none;stroke:#a8a8a8;stroke-width:0.26458332px;stroke-linecap:butt;stroke-linejoin:miter;stroke-opacity:1"
       d="m -509.87273,76.845848 h 133.16096"
       id="path5118-6"
       inkscape:connector-curvature="0"
       inkscape:export-xdpi="65.908676"
       inkscape:export-ydpi="65.908676" />
    <flowRoot
       xml:space="preserve"
       id="flowRoot5124-3"
       style="font-style:normal;font-weight:normal;font-size:40px;line-height:0.69999999;font-family:sans-serif;letter-spacing:0px;word-spacing:0px;fill:#000000;fill-opacity:1;stroke:none"
       transform="matrix(0.26458333,0,0,0.26458333,-253.12745,-114.62612)"
       inkscape:export-xdpi="65.908676"
       inkscape:export-ydpi="65.908676"><flowRegion
         id="flowRegion5126-7"
         style="line-height:0.69999999"><rect
           id="rect5128-2"
           width="517.07416"
           height="205.10608"
           x="-967.79047"
           y="779.52716"
           style="line-height:0.69999999" /></flowRegion><flowPara
         id="flowPara5130-9"
         style="font-size:18.66666603px;line-height:0.69999999">Pesquise lojas, veja ofertas, faça pedidos, pesquise preços, bata-papo com as lojas e muito mais para encontrar o melhor preço para o que procura</flowPara></flowRoot>    <g
       style="clip-rule:evenodd;fill:none;fill-opacity:1;fill-rule:evenodd;image-rendering:optimizeQuality;shape-rendering:geometricPrecision;text-rendering:geometricPrecision"
       id="Layer_x0020_1"
       transform="matrix(0.03199483,0,0,0.03199483,-507.33495,55.015513)"
       inkscape:export-xdpi="65.908676"
       inkscape:export-ydpi="65.908676">
      <g
         id="_837101199520"
         style="fill:none;fill-opacity:1">
        <path
           class="fil0 str0"
           d="m 476,336 c 11,0 20,9 20,20 0,11 -9,20 -20,20 h -8 c 11,0 20,9 20,20 0,11 -9,20 -20,20 h -8 c 11,0 20,9 20,20 0,11 -9,20 -20,20 h -8 c 11,0 20,9 20,20 0,11 -9,20 -20,20 h -20 -72 l -40,-16 v 16 H 272 V 336 h 48 v 16 c 32,-16 56,-48 56,-88 0,-12 6,-24 21,-24 25,0 27,32 27,48 0,16 -3,33 -8,48 h 40 z"
           id="path5803"
           inkscape:connector-curvature="0"
           style="fill:none;fill-opacity:1;stroke:#000000;stroke-width:31.99979973;stroke-linecap:round;stroke-linejoin:round" />
        <path
           class="fil0 str1"
           d="m 272,284 c 14,-12 24,-28 29,-46 20,-6 35,-24 35,-46 0,-17 -8,-31 -21,-40 3,-10 5,-21 5,-32 C 320,63 273,16 216,16 159,16 112,63 112,120 c 0,11 2,22 5,32 -13,9 -21,23 -21,40 0,22 15,40 35,46 5,18 15,34 29,46 v 20 c 0,64 -144,64 -144,128 h 192"
           id="path5805"
           inkscape:connector-curvature="0"
           style="fill:none;fill-opacity:1;stroke:#000000;stroke-width:31.99979973;stroke-linecap:round;stroke-linejoin:round" />
      </g>
    </g>
    <rect
       style="fill:#f2f2f2;fill-opacity:1;stroke:#666666;stroke-width:0.69999999;stroke-miterlimit:4;stroke-dasharray:none;stroke-opacity:1"
       id="rect4528"
       width="174.22043"
       height="316.4093"
       x="-289.84659"
       y="-18.628059"
       ry="0" />
    <rect
       style="fill:#094d87;fill-opacity:1;stroke:none;stroke-width:0.69999999;stroke-miterlimit:4;stroke-dasharray:none;stroke-opacity:1"
       id="rect4530"
       width="174.22047"
       height="17.187666"
       x="-289.84659"
       y="-18.628059" />
    <rect
       style="fill:#337ab7;fill-opacity:1;stroke:none;stroke-width:0.69999999;stroke-miterlimit:4;stroke-dasharray:none;stroke-opacity:1"
       id="rect4532"
       width="175.00172"
       height="21.093954"
       x="-289.84659"
       y="-1.4403934" />
    <rect
       style="fill:#ffffff;fill-opacity:1;stroke:none;stroke-width:0.5772348;stroke-miterlimit:4;stroke-dasharray:none;stroke-opacity:1"
       id="rect4534"
       width="167.9704"
       height="66.406898"
       x="-286.72156"
       y="22.299397" />
    <text
       xml:space="preserve"
       style="font-style:normal;font-weight:normal;font-size:9.55431461px;line-height:1.25;font-family:sans-serif;letter-spacing:0px;word-spacing:0px;fill:#000000;fill-opacity:1;stroke:none;stroke-width:0.23885785"
       x="-259.51175"
       y="36.685635"
       id="text4538"><tspan
         sodipodi:role="line"
         id="tspan4536"
         x="-259.51175"
         y="36.685635"
         style="stroke-width:0.23885785">Império dos Eletrônicos</tspan></text>
    <path
       style="fill:none;stroke:#000000;stroke-width:0.23885785px;stroke-linecap:butt;stroke-linejoin:miter;stroke-opacity:1"
       d="m -267.04526,41.921404 h 128.61781"
       id="path4540"
       inkscape:connector-curvature="0" />
    <text
       xml:space="preserve"
       style="font-style:normal;font-weight:normal;font-size:9.55431461px;line-height:1.25;font-family:sans-serif;letter-spacing:0px;word-spacing:0px;fill:#000000;fill-opacity:1;stroke:none;stroke-width:0.23885785"
       x="-271.34113"
       y="54.885021"
       id="text4544"><tspan
         sodipodi:role="line"
         x="-271.34113"
         y="54.885021"
         style="font-size:6.36954308px;stroke-width:0.23885785"
         id="tspan4546">Tudo de eletrônicos. A melhor loja do</tspan><tspan
         sodipodi:role="line"
         x="-271.34113"
         y="66.827911"
         style="font-size:6.36954308px;stroke-width:0.23885785"
         id="tspan4550">shopping oi. Confira nossas ofertas e traga</tspan><tspan
         sodipodi:role="line"
         x="-271.34113"
         y="78.770805"
         style="font-size:6.36954308px;stroke-width:0.23885785"
         id="tspan4552">toda a sua família.</tspan></text>
    <text
       xml:space="preserve"
       style="font-style:normal;font-weight:normal;font-size:7.08102465px;line-height:1.25;font-family:sans-serif;letter-spacing:0px;word-spacing:0px;fill:#ffffff;fill-opacity:1;stroke:none;stroke-width:0.17702562"
       x="-283.04932"
       y="10.462386"
       id="text4538-8"><tspan
         sodipodi:role="line"
         id="tspan4536-9"
         x="-283.04932"
         y="10.462386"
         style="fill:#ffffff;stroke-width:0.17702562">Império dos Eletrônicos</tspan></text>
  </g>
</svg>
